{
  "$schema": "https://developer.joomla.org/schemas/json-schema/web_assets.json",
  "name": "com_fields",
  "version": "4.0.0",
  "description": "Joomla CMS",
  "license": "GPL-2.0-or-later",
  "assets": [
    {
      "name": "com_fields.admin-field-changecontext",
      "type": "script",
      "uri": "com_fields/admin-field-changecontext.min.js",
      "dependencies": [
        "com_fields.admin-field-changecontext.es5"
      ],
      "attributes": {
        "type": "module"
      },
      "version": "3915154140c03c01c15e8f9eee982fcfebba4dd9"
    },
    {
      "name": "com_fields.admin-field-changecontext.es5",
      "type": "script",
      "uri": "com_fields/admin-field-changecontext-es5.min.js",
      "dependencies": [
        "core"
      ],
      "attributes": {
        "nomodule": true,
        "defer": true
      },
      "version": "521312df4f128980315361fdd8f0c86f311baa83"
    },
    {
      "name": "com_fields.admin-field-edit.es5",
      "type": "script",
      "uri": "com_fields/admin-field-edit-es5.min.js",
      "dependencies": [
        "core"
      ],
      "attributes": {
        "nomodule": true,
        "defer": true
      },
      "version": "3cdc5fc587079e47d7c8c5d72c3d6a344417f8c8"
    },
    {
      "name": "com_fields.admin-field-edit",
      "type": "script",
      "uri": "com_fields/admin-field-edit.min.js",
      "dependencies": [
        "com_fields.admin-field-edit.es5"
      ],
      "attributes": {
        "type": "module"
      },
      "version": "4f65629e6e77aaafec2f0d95486ac35131da38ad"
    },
    {
      "name": "com_fields.admin-field-typehaschanged.es5",
      "type": "script",
      "uri": "com_fields/admin-field-typehaschanged-es5.min.js",
      "dependencies": [
        "core"
      ],
      "attributes": {
        "nomodule": true,
        "defer": true
      },
      "version": "da02b8d7bc133c09d57132366564f37df2abd8c5"
    },
    {
      "name": "com_fields.admin-field-typehaschanged",
      "type": "script",
      "uri": "com_fields/admin-field-typehaschanged.min.js",
      "dependencies": [
        "com_fields.admin-field-typehaschanged.es5"
      ],
      "attributes": {
        "type": "module"
      },
      "version": "06635587259cf74b5c0ecfa707eef255ccf719ca"
    },
    {
      "name": "com_fields.admin-fields-batch.es5",
      "type": "script",
      "uri": "com_fields/admin-fields-default-batch-es5.min.js",
      "dependencies": [
        "core"
      ],
      "attributes": {
        "nomodule": true,
        "defer": true
      },
      "version": "0e9c156f6d588bd4b7b4655352c164984fb62389"
    },
    {
      "name": "com_fields.admin-fields-batch",
      "type": "script",
      "uri": "com_fields/admin-fields-default-batch.min.js",
      "dependencies": [
        "com_fields.admin-fields-batch.es5"
      ],
      "attributes": {
        "type": "module"
      },
      "version": "3bc48073f631b4b3c14c19456b6cd86bacb972c5"
    },
    {
      "name": "com_fields.admin-fields-modal.es5",
      "type": "script",
      "uri": "com_fields/admin-fields-modal-es5.min.js",
      "dependencies": [
        "core"
      ],
      "attributes": {
        "nomodule": true,
        "defer": true
      },
      "version": "bd07a44c5f43baf286cbdc5cbb6b7fcfd9808d6a"
    },
    {
      "name": "com_fields.admin-fields-modal",
      "type": "script",
      "uri": "com_fields/admin-fields-modal.min.js",
      "dependencies": [
        "com_fields.admin-fields-modal.es5"
      ],
      "attributes": {
        "type": "module"
      },
      "version": "36d906c1a46bbc7d72468ab224cff648eb5eba4b"
    }
  ]
}